<?xml version="1.0" encoding="UTF-8"?>
<svg width="144px" height="144px" viewBox="0 0 144 144" version="1.1" xmlns="http://www.w3.org/2000/svg" xmlns:xlink="http://www.w3.org/1999/xlink">
    <!-- Generator: Sketch 43.1 (39012) - http://www.bohemiancoding.com/sketch -->
    <title>alien</title>
    <desc>Created with Sketch.</desc>
    <defs></defs>
    <g id="Page-1" stroke="none" stroke-width="1" fill="none" fill-rule="evenodd">
        <g id="alien" fill-rule="nonzero" fill="#51A7F9">
            <g id="space" transform="translate(39.000000, 33.000000)">
                <path d="M15.5138028,17.7360563 L8.20042254,17.7360563 L8.20042254,0.467323944 L15.5138028,0.467323944 L15.5138028,17.7360563 Z M59.431831,0.467323944 L52.1184507,0.467323944 L52.1184507,17.7360563 L59.431831,17.7360563 L59.431831,0.467323944 Z M22.8271831,78.165493 L22.8271831,69.52 L8.20042254,69.52 L8.20042254,78.165493 L22.8271831,78.165493 Z M0.868169014,69.52 L8.20042254,69.52 L8.20042254,60.8967606 L0.868169014,60.8967606 L0.868169014,69.52 L0.868169014,69.52 Z M44.8050704,69.52 L44.8050704,78.165493 L59.431831,78.165493 L59.431831,69.52 L44.8050704,69.52 Z M66.7640845,69.52 L66.7640845,60.8967606 L59.431831,60.8967606 L59.431831,69.52 L66.7640845,69.52 Z M66.7640845,35.0047887 L66.7640845,52.2735211 L59.431831,52.2735211 L59.431831,60.8967606 L8.20042254,60.8967606 L8.20042254,52.2735211 L0.868169014,52.2735211 L0.868169014,35.0047887 L8.20042254,35.0047887 L8.20042254,26.3592958 L15.5138028,26.3592958 L15.5138028,17.7360563 L52.1184507,17.7360563 L52.1184507,26.3592958 L59.431831,26.3592958 L59.431831,35.0047887 L66.7640845,35.0047887 L66.7640845,35.0047887 Z M52.1184507,35.0047887 L37.4728169,35.0047887 L37.4728169,43.6280282 L52.1184507,43.6280282 L52.1184507,35.0047887 Z M15.5138028,35.0047887 L15.5138028,43.6280282 L30.1594366,43.6280282 L30.1594366,35.0047887 L15.5138028,35.0047887 Z" id="Shape"></path>
            </g>
        </g>
    </g>
</svg>